{
"type": "FeatureCollection",
"name": "McMurdo",
"crs": { "type": "name", "properties": { "name": "urn:ogc:def:crs:OGC:1.3:CRS84" } },
"features": [
{ "type": "Feature", "properties": { "id": null }, "geometry": { "type": "MultiPolygon", "coordinates": [ [ [ [ 165.375446547515736, -75.219268625313788 ], [ 167.452035850434498, -76.82735912208625 ], [ 167.895210396789111, -78.156882761150101 ], [ 166.685976991735799, -78.492429203390017 ], [ 164.660036208400413, -78.574733047713025 ], [ 164.305496571316723, -77.498452006566097 ], [ 165.375446547515736, -75.219268625313788 ] ] ] ] } }
]
}
