{
  "type": "FeatureCollection",
  "features": [
    {
      "type": "Feature",
      "properties": {},
      "geometry": {
        "type": "Polygon",
        "coordinates": [
          [
            [
              13.788528442382812,
              52.80981786421015
            ],
            [
              13.825607299804688,
              52.80981786421015
            ],
            [
              13.825607299804688,
              52.82807629652413
            ],
            [
              13.788528442382812,
              52.82807629652413
            ],
            [
              13.788528442382812,
              52.80981786421015
            ]
          ]
        ]
      }
    }
  ]
}